<?xml version="1.0" standalone="no"?>
<svg xmlns="http://www.w3.org/2000/svg" version="1.1">
<path stroke="black" stroke-width="1" fill="none" fill-rule="nonzero" transform="matrix(1 0 0 -1 0 343.327)" d="M 296.528 100.871 L 296.528 100.867 M 296.528 244.857 L 296.528 100.867 M 10.8965 100.867 L 10.8965 244.857 M 17.0463 301.761 L 18.1178 302.943 M 25.2271 310.784 L 36.7528 323.496 M 270.671 323.496 L 283.13 309.757 M 290.136 302.032 L 290.381 301.761 M 36.7527 22.2281 L 17.0464 43.9627 M 290.381 43.9627 L 270.671 22.2281 M 11.2466 270.061 L 13.7426 294.815 M 293.682 294.815 L 296.178 270.061 M 13.7426 50.909 L 11.2466 75.6625 M 296.178 75.6625 L 293.682 50.909 M 10.8965 244.857 L 11.2466 270.061 M 13.7425 294.815 L 17.0463 301.761 M 36.7528 323.496 L 38.3897 324.442 M 269.034 324.442 L 270.671 323.496 M 290.381 301.761 L 293.682 294.815 M 296.178 270.061 L 296.528 244.857 M 37.0519 22.0552 L 36.7527 22.228 M 17.0463 43.9627 L 13.7425 50.909 M 11.2466 75.6626 L 10.8965 100.867 M 296.528 100.867 L 296.178 75.6626 M 293.682 50.909 L 290.381 43.9627 M 270.671 22.228 L 270.371 22.0552 M 287.795 22.0551 L 287.795 41.111 M 287.795 307.104 L 287.795 324.442 M 15.6191 324.442 L 15.6191 298.76 M 15.6191 46.9631 L 15.6191 22.0552 M 4.5511 22.0551 L 3.4089 22.0551 M 3.4089 22.0551 L 4.5511 22.0551 M 299.638 22.0551 L 298.474 22.0551 M 298.474 22.0551 L 299.638 22.0551 M 5.4512 22.0551 L 4.5512 22.0551 M 3.4088 22.0551 L 5.4512 22.0551 M 298.474 22.0551 L 297.519 22.0551 M 297.519 22.0551 L 299.638 22.0551 M 6.1995 22.0551 L 5.4512 22.0551 M 3.4088 22.0551 L 6.1996 22.0551 M 3.4089 22.0551 L 4.5511 22.0551 M 4.5512 22.0551 L 6.1995 22.0551 M 6.8954 22.0551 L 6.1996 22.0551 M 4.5511 22.0551 L 6.8955 22.0551 M 4.5512 22.0551 L 5.4512 22.0551 M 5.4512 22.0551 L 6.8954 22.0551 M 7.6268 22.0551 L 6.8954 22.0551 M 5.4512 22.0551 L 7.6267 22.0551 M 297.519 22.0551 L 296.684 22.0551 M 296.684 22.0551 L 299.638 22.0551 M 298.474 22.0551 L 299.638 22.0551 M 296.684 22.0551 L 298.474 22.0551 M 296.684 22.0551 L 295.883 22.0551 M 295.883 22.0551 L 298.474 22.0551 M 297.519 22.0551 L 298.474 22.0551 M 295.883 22.0551 L 297.519 22.0551 M 295.883 22.0551 L 295.031 22.0551 M 295.031 22.0551 L 297.519 22.0551 M 296.684 22.0551 L 297.519 22.0551 M 295.031 22.0551 L 296.684 22.0551 M 295.031 22.0551 L 294.036 22.0551 M 294.036 22.0551 L 296.684 22.0551 M 295.883 22.0551 L 296.684 22.0551 M 294.037 22.0551 L 295.883 22.0551 M 294.036 22.0551 L 292.816 22.0551 M 292.816 22.0551 L 295.883 22.0551 M 295.031 22.0551 L 295.883 22.0551 M 292.816 22.0551 L 295.031 22.0551 M 294.036 22.0551 L 295.031 22.0551 M 292.816 22.0551 L 294.036 22.0551 M 292.816 22.0551 L 291.281 22.0551 M 291.281 22.0551 L 294.036 22.0551 M 292.816 22.0551 L 294.036 22.0551 M 291.281 22.0551 L 292.816 22.0551 M 291.281 22.0551 L 289.344 22.0551 M 289.344 22.0551 L 292.816 22.0551 M 291.281 22.0551 L 292.816 22.0551 M 289.344 22.0551 L 291.281 22.0551 M 289.344 22.0551 L 291.281 22.0551 M 289.344 22.0551 L 286.917 22.0551 M 286.917 22.0551 L 289.344 22.0551 M 286.917 22.0551 L 289.344 22.0551 M 286.917 22.0551 L 283.911 22.0551 M 283.911 22.0551 L 286.917 22.0551 M 283.911 22.0551 L 286.917 22.0551 M 283.911 22.0551 L 254.533 22.0551 M 254.533 22.0551 L 283.911 22.0551 M 254.533 22.0551 L 283.911 22.0551 M 254.533 22.0551 L 228.482 22.0551 M 228.482 22.0551 L 254.533 22.0551 M 228.482 22.0551 L 254.533 22.0551 M 228.482 22.0551 L 205 22.0551 M 205 22.0551 L 228.482 22.0551 M 205 22.0551 L 228.482 22.0551 M 205 22.0551 L 183.321 22.0551 M 183.321 22.0551 L 205 22.0551 M 183.321 22.0551 L 205 22.0551 M 183.321 22.0551 L 162.689 22.0551 M 162.689 22.0551 L 183.321 22.0551 M 162.689 22.0551 L 183.321 22.0551 M 142.343 22.0551 L 162.689 22.0551 M 162.689 22.0551 L 142.343 22.0551 M 162.689 22.0551 L 142.343 22.0551 M 121.517 22.0551 L 142.343 22.0551 M 142.343 22.0551 L 121.517 22.0551 M 142.343 22.0551 L 121.517 22.0551 M 99.4537 22.0551 L 121.517 22.0551 M 121.517 22.0551 L 99.4537 22.0551 M 121.517 22.0551 L 99.4537 22.0551 M 75.3961 22.0551 L 99.4537 22.0551 M 99.4537 22.0551 L 75.3961 22.0551 M 99.4537 22.0551 L 75.3961 22.0551 M 48.5746 22.0551 L 75.3961 22.0551 M 75.3961 22.0551 L 48.5746 22.0551 M 75.3961 22.0551 L 48.5746 22.0551 M 18.2369 22.0551 L 48.5746 22.0551 M 48.5746 22.0551 L 18.2369 22.0551 M 48.5746 22.0551 L 18.2369 22.0551 M 15.252 22.0551 L 18.2368 22.0551 M 18.2368 22.0551 L 15.252 22.0551 M 18.2368 22.0551 L 15.252 22.0551 M 12.8822 22.0551 L 15.252 22.0551 M 15.252 22.0551 L 12.8822 22.0551 M 15.252 22.0551 L 12.8822 22.0551 M 11.0298 22.0551 L 12.8821 22.0551 M 12.8821 22.0551 L 11.0298 22.0551 M 9.6025 22.0551 L 11.0298 22.0551 M 12.8821 22.0551 L 9.6026 22.0551 M 12.8821 22.0551 L 11.0298 22.0551 M 11.0298 22.0551 L 9.6025 22.0551 M 8.4999 22.0551 L 9.6025 22.0551 M 11.0297 22.0551 L 8.4999 22.0551 M 11.0298 22.0551 L 9.6025 22.0551 M 9.6025 22.0551 L 8.4999 22.0551 M 7.6268 22.0551 L 8.4998 22.0551 M 9.6026 22.0551 L 7.6267 22.0551 M 6.8954 22.0551 L 7.6268 22.0551 M 9.6024 22.0551 L 6.8955 22.0551 M 9.6025 22.0551 L 8.4999 22.0551 M 8.4998 22.0551 L 6.8954 22.0551 M 6.1996 22.0551 L 6.8954 22.0551 M 8.4998 22.0551 L 6.1996 22.0551 M 8.4998 22.0551 L 7.6268 22.0551 M 7.6268 22.0551 L 6.1995 22.0551 M 5.4512 22.0551 L 6.1995 22.0551 M 3.4088 3.1707 L 3.4088 22.0551 M 4.5511 3.1707 L 3.4089 3.1707 M 5.4512 3.1707 L 4.5512 3.1707 M 6.1995 3.1707 L 5.4512 3.1707 M 6.8954 3.1707 L 6.1996 3.1707 M 7.6268 3.1707 L 6.8954 3.1707 M 8.4998 3.1707 L 7.6268 3.1707 M 9.6025 3.1707 L 8.4999 3.1707 M 11.0298 3.1707 L 9.6025 3.1707 M 12.8821 3.1707 L 11.0298 3.1707 M 15.252 3.1707 L 12.8822 3.1707 M 18.2368 3.1707 L 15.252 3.1707 M 48.5746 3.1707 L 18.2369 3.1707 M 75.3961 3.1707 L 48.5746 3.1707 M 99.4537 3.1707 L 75.3961 3.1707 M 121.517 3.1707 L 99.4537 3.1707 M 142.343 3.1707 L 121.517 3.1707 M 162.689 3.1707 L 142.343 3.1707 M 183.321 3.1707 L 162.689 3.1707 M 205 3.1707 L 183.321 3.1707 M 228.482 3.1707 L 205 3.1707 M 254.533 3.1707 L 228.482 3.1707 M 283.911 3.1707 L 254.533 3.1707 M 286.917 3.1707 L 283.911 3.1707 M 289.344 3.1707 L 286.917 3.1707 M 291.281 3.1707 L 289.344 3.1707 M 292.816 3.1707 L 291.281 3.1707 M 294.036 3.1707 L 292.816 3.1707 M 295.031 3.1707 L 294.036 3.1707 M 295.883 3.1707 L 295.031 3.1707 M 296.684 3.1707 L 295.883 3.1707 M 297.519 3.1707 L 296.684 3.1707 M 298.474 3.1707 L 297.519 3.1707 M 299.638 3.1707 L 298.474 3.1707 M 299.638 22.0551 L 299.638 3.1707 M 298.474 3.1707 L 299.638 3.1707 M 297.519 3.1707 L 298.474 3.1707 M 296.684 3.1707 L 297.519 3.1707 M 295.883 3.1707 L 296.684 3.1707 M 295.031 3.1707 L 295.883 3.1707 M 294.036 3.1707 L 295.031 3.1707 M 292.816 3.1707 L 294.036 3.1707 M 291.281 3.1707 L 292.816 3.1707 M 289.344 3.1707 L 291.281 3.1707 M 286.917 3.1707 L 289.344 3.1707 M 283.911 3.1707 L 286.917 3.1707 M 254.533 3.1707 L 283.911 3.1707 M 228.482 3.1707 L 254.533 3.1707 M 205 3.1707 L 228.482 3.1707 M 183.321 3.1707 L 205 3.1707 M 162.689 3.1707 L 183.321 3.1707 M 142.343 3.1707 L 162.689 3.1707 M 121.517 3.1707 L 142.343 3.1707 M 99.4537 3.1707 L 121.517 3.1707 M 75.3961 3.1707 L 99.4537 3.1707 M 48.5746 3.1707 L 75.3961 3.1707 M 18.2369 3.1707 L 48.5746 3.1707 M 15.252 3.1707 L 18.2368 3.1707 M 12.8822 3.1707 L 15.252 3.1707 M 11.0298 3.1707 L 12.8821 3.1707 M 9.6025 3.1707 L 11.0298 3.1707 M 8.4999 3.1707 L 9.6025 3.1707 M 7.6268 3.1707 L 8.4998 3.1707 M 6.8954 3.1707 L 7.6268 3.1707 M 6.1996 3.1707 L 6.8954 3.1707 M 5.4512 3.1707 L 6.1995 3.1707 M 4.5512 3.1707 L 5.4512 3.1707 M 3.4089 3.1707 L 4.5511 3.1707 M 4.5511 3.1707 L 3.4089 3.1707 M 299.638 3.1707 L 298.474 3.1707 M 5.4512 3.1707 L 3.4088 3.1707 M 299.638 3.1707 L 297.519 3.1707 M 6.1996 3.1707 L 3.4088 3.1707 M 6.1995 3.1707 L 4.5512 3.1707 M 6.8955 3.1707 L 4.5511 3.1707 M 6.8954 3.1707 L 5.4512 3.1707 M 7.6267 3.1707 L 5.4512 3.1707 M 299.638 3.1707 L 296.684 3.1707 M 298.474 3.1707 L 296.684 3.1707 M 298.474 3.1707 L 295.883 3.1707 M 297.519 3.1707 L 295.883 3.1707 M 297.519 3.1707 L 295.031 3.1707 M 296.684 3.1707 L 295.031 3.1707 M 296.684 3.1707 L 294.036 3.1707 M 295.883 3.1707 L 294.037 3.1707 M 295.883 3.1707 L 292.816 3.1707 M 295.031 3.1707 L 292.816 3.1707 M 294.036 3.1707 L 292.816 3.1707 M 294.036 3.1707 L 291.281 3.1707 M 292.816 3.1707 L 291.281 3.1707 M 292.816 3.1707 L 289.344 3.1707 M 291.281 3.1707 L 289.344 3.1707 M 289.344 3.1707 L 286.917 3.1707 M 286.917 3.1707 L 283.911 3.1707 M 283.911 3.1707 L 254.533 3.1707 M 254.533 3.1707 L 228.482 3.1707 M 228.482 3.1707 L 205 3.1707 M 205 3.1707 L 183.321 3.1707 M 183.321 3.1707 L 162.689 3.1707 M 142.343 3.1707 L 162.689 3.1707 M 121.517 3.1707 L 142.343 3.1707 M 99.4537 3.1707 L 121.517 3.1707 M 75.3961 3.1707 L 99.4537 3.1707 M 48.5746 3.1707 L 75.3961 3.1707 M 18.2369 3.1707 L 48.5746 3.1707 M 15.252 3.1707 L 18.2368 3.1707 M 12.8822 3.1707 L 15.252 3.1707 M 11.0298 3.1707 L 12.8821 3.1707 M 9.6026 3.1707 L 12.8821 3.1707 M 9.6025 3.1707 L 11.0298 3.1707 M 8.4999 3.1707 L 11.0297 3.1707 M 8.4999 3.1707 L 9.6025 3.1707 M 7.6267 3.1707 L 9.6026 3.1707 M 6.8955 3.1707 L 9.6024 3.1707 M 6.8954 3.1707 L 8.4998 3.1707 M 6.1996 3.1707 L 8.4998 3.1707 M 6.1995 3.1707 L 7.6268 3.1707 M 3.4089 343.327 L 4.5511 343.327 M 4.5512 343.327 L 5.4512 343.327 M 298.474 343.327 L 299.638 343.327 M 297.519 343.327 L 298.474 343.327 M 296.684 343.327 L 297.519 343.327 M 295.883 343.327 L 296.684 343.327 M 295.031 343.327 L 295.883 343.327 M 294.036 343.327 L 295.031 343.327 M 292.816 343.327 L 294.036 343.327 M 291.281 343.327 L 292.816 343.327 M 289.344 343.327 L 291.281 343.327 M 286.917 343.327 L 289.344 343.327 M 283.911 343.327 L 286.917 343.327 M 254.533 343.327 L 283.911 343.327 M 228.482 343.327 L 254.533 343.327 M 205 343.327 L 228.482 343.327 M 183.321 343.327 L 205 343.327 M 162.689 343.327 L 183.321 343.327 M 142.343 343.327 L 162.689 343.327 M 121.517 343.327 L 142.343 343.327 M 99.4537 343.327 L 121.517 343.327 M 75.3961 343.327 L 99.4537 343.327 M 48.5746 343.327 L 75.3961 343.327 M 18.2369 343.327 L 48.5746 343.327 M 15.252 343.327 L 18.2368 343.327 M 12.8822 343.327 L 15.252 343.327 M 11.0298 343.327 L 12.8821 343.327 M 9.6025 343.327 L 11.0298 343.327 M 8.4999 343.327 L 9.6025 343.327 M 7.6268 343.327 L 8.4998 343.327 M 6.8954 343.327 L 7.6268 343.327 M 6.1996 343.327 L 6.8954 343.327 M 5.4512 343.327 L 6.1995 343.327 M 3.4088 324.442 L 3.4088 343.327 M 299.638 343.327 L 299.638 324.442 M 298.474 324.442 L 299.638 324.442 M 297.519 324.442 L 298.474 324.442 M 296.684 324.442 L 297.519 324.442 M 295.883 324.442 L 296.684 324.442 M 295.031 324.442 L 295.883 324.442 M 294.036 324.442 L 295.031 324.442 M 292.816 324.442 L 294.036 324.442 M 291.281 324.442 L 292.816 324.442 M 289.344 324.442 L 291.281 324.442 M 286.917 324.442 L 289.344 324.442 M 283.911 324.442 L 286.917 324.442 M 254.533 324.442 L 283.911 324.442 M 228.482 324.442 L 254.533 324.442 M 205 324.442 L 228.482 324.442 M 183.321 324.442 L 205 324.442 M 162.689 324.442 L 183.321 324.442 M 142.343 324.442 L 162.689 324.442 M 121.517 324.442 L 142.343 324.442 M 99.4537 324.442 L 121.517 324.442 M 75.3961 324.442 L 99.4537 324.442 M 48.5746 324.442 L 75.3961 324.442 M 18.2369 324.442 L 48.5746 324.442 M 15.252 324.442 L 18.2368 324.442 M 12.8822 324.442 L 15.252 324.442 M 11.0298 324.442 L 12.8821 324.442 M 9.6025 324.442 L 11.0298 324.442 M 8.4999 324.442 L 9.6025 324.442 M 7.6268 324.442 L 8.4998 324.442 M 6.8954 324.442 L 7.6268 324.442 M 6.1996 324.442 L 6.8954 324.442 M 5.4512 324.442 L 6.1995 324.442 M 4.5512 324.442 L 5.4512 324.442 M 3.4089 324.442 L 4.5511 324.442 M 151.417 303.72 L 151.716 305.178 M 150.158 242.668 L 150.112 244.022 M 150.112 244.022 L 149.658 248.148 M 150.713 253.348 L 149.623 247.975 M 150.71 253.337 L 150.713 253.348 M 151.444 253.201 L 150.133 261.024 M 151.686 268.468 L 150.133 261.024 M 152.178 276.864 L 151.686 268.468 M 151.625 285.497 L 152.178 276.864 M 151.625 285.489 L 151.625 285.497 M 152.103 278.029 L 152.214 285.533 M 152.214 285.533 L 149.783 294.282 M 152.075 299.244 L 151.417 303.72 M 149.83 240.618 L 150.158 242.668 M 151.716 305.178 L 147.763 308.357 M 147.763 308.357 L 148.923 306.57 M 150.268 294.88 L 152.075 299.244 M 150.414 292.011 L 150.268 294.88 M 150.259 245.821 L 151.444 253.201 M 146.422 239.281 L 149.83 240.618 M 147.962 309.192 L 148.479 307.782 M 150.028 244.78 L 150.259 245.821 M 146.422 239.281 L 148.788 241.598 M 147.962 309.192 L 147.287 309.468 M 144.709 237.923 L 147.974 239.89 M 147.287 309.468 L 145.021 309.563 M 143.827 237.145 L 146.291 238.876 M 142.468 237.167 L 143.827 237.145 M 145.021 309.563 L 141.871 311.233 M 140.916 237.301 L 142.468 237.166 M 141.871 311.233 L 139.329 311.964 M 139.725 236.768 L 140.916 237.301 M 139.329 311.964 L 137.451 311.684 M 138.654 235.908 L 139.725 236.768 M 137.451 311.684 L 135.994 311.606 M 136.966 235.212 L 138.654 235.908 M 135.994 311.606 L 134.375 312.137 M 134.613 235.657 L 136.966 235.212 M 134.375 312.137 L 132.378 312.972 M 132.421 236.427 L 134.613 235.657 M 132.378 312.972 L 130.699 312.852 M 128.856 235.107 L 132.421 236.427 M 130.699 312.852 L 126.539 312.167 M 123.372 236.41 L 128.856 235.107 M 126.539 312.167 L 121.625 312.639 M 119.696 235.042 L 123.372 236.41 M 121.625 312.639 L 117.39 312.457 M 114.432 236.258 L 119.696 235.042 M 117.39 312.457 L 112.541 312.418 M 110.431 235.202 L 114.432 236.258 M 112.541 312.418 L 108.173 312.799 M 105.591 236.02 L 110.431 235.202 M 108.173 312.799 L 103.502 312.236 M 101.101 235.583 L 105.591 236.02 M 103.502 312.236 L 98.9817 313.029 M 96.7849 235.743 L 101.101 235.583 M 98.9817 313.029 L 94.5484 312.103 M 91.7931 236.02 L 96.7849 235.743 M 94.5484 312.103 L 89.8683 313.075 M 87.9309 235.471 L 91.7931 236.02 M 89.8684 313.076 L 85.6249 312.025 M 82.572 236.327 L 87.9308 235.471 M 85.6249 312.025 L 80.8103 312.972 M 79.3107 235.358 L 82.5719 236.327 M 80.8102 312.972 L 76.9963 312.025 M 74.2976 236.298 L 79.3107 235.358 M 76.9963 312.025 L 72.5146 312.993 M 71.0009 235.393 L 74.2977 236.298 M 72.5147 312.993 L 68.6907 312.021 M 66.0276 236.258 L 71.0009 235.393 M 68.6907 312.021 L 64.2233 313.016 M 62.6926 235.432 L 66.0276 236.258 M 64.2233 313.016 L 60.3824 312.025 M 57.7533 236.22 L 62.6926 235.432 M 60.3823 312.025 L 55.932 313.033 M 54.3786 235.471 L 57.7532 236.22 M 55.932 313.033 L 52.0739 312.025 M 49.4875 236.176 L 54.3785 235.471 M 52.074 312.025 L 47.6406 313.046 M 46.066 235.51 L 49.4874 236.176 M 47.6407 313.046 L 43.7642 312.034 M 41.2215 236.128 L 46.066 235.51 M 43.7643 312.034 L 39.3478 313.059 M 37.7392 235.539 L 41.2216 236.127 M 36.0611 257.803 L 37.8044 248.572 M 36.7102 267.997 L 36.0612 257.803 M 36.2907 278.348 L 36.7102 267.997 M 35.3383 288.404 L 36.2907 278.348 M 39.3479 313.058 L 35.4602 312.046 M 37.4104 235.307 L 37.7392 235.539 M 37.8044 248.574 L 37.8044 248.572 M 36.5246 296.765 L 35.3382 288.404 M 35.4602 312.046 L 35.2007 312.038 M 36.2169 234.887 L 37.4105 235.307 M 35.2008 312.038 L 34.2016 312.268 M 33.9635 235.406 L 36.2169 234.887 M 34.2015 312.268 L 32.0601 313.102 M 31.5498 236.378 L 33.9635 235.406 M 32.06 313.102 L 29.5953 312.683 M 29.9709 236.133 L 31.5498 236.378 M 29.5953 312.683 L 27.3332 311.519 M 26.7876 236.266 L 29.9709 236.133 M 27.3332 311.519 L 25.6154 310.853 M 22.1075 238.623 L 26.7876 236.266 M 25.6154 310.853 L 23.8679 310.541 M 19.9575 238.901 L 22.1075 238.623 M 23.8679 310.541 L 21.9644 309.179 M 19.8541 240.843 L 19.9574 238.901 M 18.9072 305.722 L 18.4353 301.428 M 21.9643 309.179 L 18.8166 307.383 M 19.1539 240 L 19.9235 239.552 M 18.4353 301.428 L 18.4395 300.264 M 18.8166 307.383 L 16.6182 307.181 M 15.619 243.213 L 17.609 240.912 M 17.609 240.912 L 19.1538 240 M 16.692 260.255 L 16.6905 260.245 M 16.2866 257.233 L 15.741 253.169 M 15.7749 294.486 L 17.9421 285.592 M 18.1377 299.663 L 15.7749 294.486 M 18.1107 304.032 L 18.1377 299.663 M 16.6183 307.181 L 16.1037 306.821 M 16.1038 306.821 L 18.1107 304.031 M 18.0115 299.387 L 18.1377 299.772 M 17.3935 268.71 L 17.8868 277.336 M 16.2341 260.813 L 17.3936 268.71 M 16.2895 257.029 L 16.2341 260.813 M 15.5977 243.335 L 16.186 247.093 M 15.6191 243.213 L 15.5978 243.335 M 15.741 253.169 L 16.1859 247.093 M 17.9421 285.592 L 17.8867 277.336 M 18.1377 299.663 L 18.1362 299.66 M 289.888 303.72 L 290.187 305.178 M 288.634 242.668 L 288.587 244.022 M 288.587 244.022 L 288.132 248.156 M 289.915 253.201 L 288.604 261.024 M 290.161 268.468 L 288.604 261.024 M 290.649 276.864 L 290.162 268.468 M 290.096 285.497 L 290.649 276.864 M 290.096 285.489 L 290.096 285.497 M 290.574 278.029 L 290.684 285.533 M 290.684 285.533 L 288.258 294.282 M 290.546 299.244 L 289.888 303.72 M 288.305 240.618 L 288.634 242.668 M 290.187 305.178 L 286.238 308.357 M 286.238 308.357 L 287.392 306.57 M 288.743 294.88 L 290.546 299.244 M 288.889 292.007 L 288.743 294.88 M 288.729 245.821 L 289.915 253.201 M 284.893 239.281 L 288.305 240.618 M 286.437 309.192 L 286.95 307.784 M 288.502 244.794 L 288.729 245.821 M 284.893 239.281 L 287.259 241.598 M 286.437 309.192 L 285.758 309.468 M 283.18 237.923 L 286.451 239.892 M 285.758 309.468 L 283.496 309.563 M 282.298 237.145 L 284.752 238.869 M 280.939 237.167 L 282.298 237.145 M 283.496 309.563 L 280.342 311.233 M 279.387 237.301 L 280.939 237.166 M 280.342 311.233 L 277.8 311.964 M 278.197 236.768 L 279.387 237.301 M 277.8 311.964 L 275.922 311.684 M 277.129 235.908 L 278.197 236.768 M 275.922 311.684 L 274.465 311.606 M 275.437 235.212 L 277.129 235.908 M 274.465 311.606 L 272.846 312.137 M 273.089 235.657 L 275.437 235.212 M 272.846 312.137 L 270.849 312.972 M 270.892 236.427 L 273.089 235.657 M 270.849 312.972 L 269.17 312.852 M 267.327 235.107 L 270.892 236.427 M 269.17 312.852 L 265.01 312.167 M 261.844 236.41 L 267.327 235.107 M 265.01 312.167 L 260.096 312.639 M 258.171 235.042 L 261.844 236.41 M 260.096 312.639 L 255.861 312.457 M 252.907 236.258 L 258.171 235.042 M 255.861 312.457 L 251.012 312.418 M 248.902 235.202 L 252.907 236.258 M 251.012 312.418 L 246.648 312.799 M 244.062 236.02 L 248.902 235.202 M 246.648 312.799 L 241.977 312.236 M 239.572 235.583 L 244.062 236.02 M 241.977 312.236 L 237.453 313.029 M 235.256 235.743 L 239.572 235.583 M 237.453 313.029 L 233.019 312.103 M 230.264 236.02 L 235.256 235.743 M 233.019 312.103 L 228.339 313.075 M 226.402 235.471 L 230.264 236.02 M 228.339 313.076 L 224.096 312.025 M 221.047 236.327 L 226.402 235.471 M 224.096 312.025 L 219.281 312.972 M 217.782 235.358 L 221.047 236.327 M 219.281 312.972 L 215.467 312.025 M 212.769 236.298 L 217.782 235.358 M 215.467 312.025 L 210.99 312.993 M 209.472 235.393 L 212.769 236.298 M 210.99 312.993 L 207.162 312.021 M 204.499 236.258 L 209.472 235.393 M 207.162 312.021 L 202.694 313.016 M 201.164 235.432 L 204.499 236.258 M 202.694 313.016 L 198.853 312.025 M 196.229 236.22 L 201.164 235.432 M 198.853 312.025 L 194.403 313.033 M 192.85 235.471 L 196.228 236.22 M 194.403 313.033 L 190.549 312.025 M 187.958 236.176 L 192.85 235.471 M 190.549 312.025 L 186.112 313.046 M 184.537 235.51 L 187.958 236.176 M 186.112 313.046 L 182.235 312.034 M 179.692 236.128 L 184.537 235.51 M 182.235 312.034 L 177.819 313.059 M 176.214 235.539 L 179.693 236.127 M 174.536 257.803 L 176.275 248.572 M 175.181 267.997 L 174.536 257.803 M 174.762 278.348 L 175.181 267.997 M 173.809 288.404 L 174.762 278.348 M 177.819 313.058 L 173.935 312.046 M 175.882 235.307 L 176.214 235.539 M 176.275 248.574 L 176.275 248.572 M 174.996 296.765 L 173.809 288.404 M 173.936 312.046 L 173.676 312.038 M 174.692 234.887 L 175.881 235.307 M 173.676 312.038 L 172.673 312.268 M 172.439 235.406 L 174.692 234.887 M 172.673 312.268 L 170.531 313.102 M 170.021 236.378 L 172.439 235.406 M 170.531 313.102 L 168.066 312.683 M 168.442 236.133 L 170.021 236.378 M 168.066 312.683 L 165.809 311.519 M 165.259 236.266 L 168.442 236.133 M 165.809 311.519 L 164.087 310.853 M 160.578 238.623 L 165.259 236.266 M 164.087 310.853 L 162.343 310.541 M 158.433 238.901 L 160.579 238.623 M 162.343 310.541 L 160.435 309.179 M 158.325 240.843 L 158.433 238.901 M 157.378 305.722 L 156.906 301.428 M 160.435 309.179 L 157.288 307.383 M 157.625 240 L 158.397 239.553 M 156.906 301.428 L 156.91 300.264 M 157.288 307.383 L 155.089 307.181 M 154.09 243.213 L 156.08 240.912 M 156.08 240.912 L 157.625 240 M 155.163 260.255 L 155.161 260.245 M 154.759 257.249 L 154.212 253.169 M 154.246 294.486 L 156.413 285.592 M 156.607 299.663 L 154.246 294.486 M 156.582 304.032 L 156.607 299.663 M 155.089 307.181 L 154.579 306.821 M 154.579 306.821 L 156.582 304.031 M 156.485 299.397 L 156.607 299.768 M 155.865 268.71 L 156.356 277.336 M 154.71 260.813 L 155.865 268.71 M 154.762 257.04 L 154.71 260.813 M 154.069 243.335 L 154.661 247.093 M 154.09 243.213 L 154.069 243.335 M 154.212 253.169 L 154.661 247.093 M 156.413 285.592 L 156.356 277.336 M 156.607 299.663 L 156.606 299.66 " />
</svg>
